<?xml version="1.0" encoding="UTF-8" standalone="no"?>
<svg
   xmlns:dc="http://purl.org/dc/elements/1.1/"
   xmlns:cc="http://creativecommons.org/ns#"
   xmlns:rdf="http://www.w3.org/1999/02/22-rdf-syntax-ns#"
   xmlns:svg="http://www.w3.org/2000/svg"
   xmlns="http://www.w3.org/2000/svg"
   xmlns:sodipodi="http://sodipodi.sourceforge.net/DTD/sodipodi-0.dtd"
   xmlns:inkscape="http://www.inkscape.org/namespaces/inkscape"
   width="184.55734mm"
   height="184.4182mm"
   viewBox="0 0 184.55734 184.4182"
   version="1.1"
   id="svg1744"
   inkscape:version="1.0.1 (3bc2e813f5, 2020-09-07)"
   sodipodi:docname="starburst.svg">
  <defs
     id="defs1738" />
  <sodipodi:namedview
     id="base"
     pagecolor="#ffffff"
     bordercolor="#666666"
     borderopacity="1.0"
     inkscape:pageopacity="0.0"
     inkscape:pageshadow="2"
     inkscape:zoom="0.35"
     inkscape:cx="348.36502"
     inkscape:cy="416.46284"
     inkscape:document-units="mm"
     inkscape:current-layer="layer1"
     inkscape:document-rotation="0"
     showgrid="false"
     fit-margin-top="0"
     fit-margin-left="0"
     fit-margin-right="0"
     fit-margin-bottom="0"
     inkscape:window-width="1309"
     inkscape:window-height="702"
     inkscape:window-x="57"
     inkscape:window-y="27"
     inkscape:window-maximized="1" />
  <metadata
     id="metadata1741">
    <rdf:RDF>
      <cc:Work
         rdf:about="">
        <dc:format>image/svg+xml</dc:format>
        <dc:type
           rdf:resource="http://purl.org/dc/dcmitype/StillImage" />
        <dc:title></dc:title>
      </cc:Work>
    </rdf:RDF>
  </metadata>
  <g
     inkscape:label="Layer 1"
     inkscape:groupmode="layer"
     id="layer1"
     transform="translate(-13.661755,-37.977542)">
    <g
       id="g1459"
       transform="matrix(2.053841,0,0,2.053841,4.2022639,26.387419)">
      <g
         id="g949">
        <path
           d="m 26.92,51.098 h -3.366 c -0.199,0 -0.362,-0.161 -0.362,-0.358 0,-0.2 0.164,-0.364 0.362,-0.364 h 3.366 c 0.192,0 0.362,0.164 0.362,0.364 0,0.197 -0.169,0.358 -0.362,0.358 z"
           id="path947" />
      </g>
      <g
         id="g953">
        <path
           d="m 21.407,50.912 c 0,0 0,0 -0.006,0 l -6.24,-0.055 c -0.2,0 -0.364,-0.163 -0.358,-0.358 0,-0.2 0.169,-0.373 0.361,-0.361 l 6.243,0.05 c 0.204,0 0.362,0.163 0.362,0.371 0,0.193 -0.164,0.353 -0.362,0.353 z"
           id="path951" />
      </g>
      <g
         id="g957">
        <path
           d="m 14.029,50.818 h -3.084 c -0.198,0 -0.362,-0.161 -0.362,-0.354 0,-0.205 0.164,-0.367 0.362,-0.367 h 3.084 c 0.197,0 0.361,0.162 0.361,0.367 0,0.193 -0.164,0.354 -0.361,0.354 z"
           id="path955" />
      </g>
      <g
         id="g961">
        <path
           d="m 20.209,48.22 c -0.017,0 -0.034,-0.008 -0.047,-0.008 l -9.669,-1.26 c -0.198,-0.028 -0.333,-0.209 -0.311,-0.404 0.023,-0.198 0.204,-0.331 0.404,-0.313 l 9.668,1.257 c 0.198,0.028 0.34,0.211 0.311,0.406 -0.023,0.184 -0.181,0.322 -0.356,0.322 z"
           id="path959" />
      </g>
      <g
         id="g965">
        <path
           d="m 8.424,46.612 c -0.017,0 -0.04,0 -0.057,-0.006 L 4.91,46.053 C 4.712,46.019 4.577,45.832 4.611,45.632 4.645,45.441 4.825,45.299 5.027,45.336 l 3.457,0.562 c 0.201,0.028 0.331,0.214 0.296,0.415 -0.028,0.178 -0.18,0.299 -0.356,0.299 z"
           id="path963" />
      </g>
      <g
         id="g969">
        <path
           d="m 26.452,46.612 c -0.028,0 -0.062,-0.006 -0.093,-0.008 l -7.381,-1.958 c -0.192,-0.057 -0.305,-0.251 -0.257,-0.443 0.054,-0.2 0.251,-0.313 0.447,-0.263 l 7.38,1.965 c 0.192,0.051 0.305,0.246 0.254,0.444 -0.042,0.161 -0.193,0.263 -0.35,0.263 z"
           id="path967" />
      </g>
      <g
         id="g973">
        <path
           d="m 17.153,44.291 c -0.031,0 -0.056,-0.006 -0.09,-0.008 L 6.368,41.474 C 6.176,41.415 6.063,41.217 6.114,41.028 6.159,40.83 6.36,40.715 6.555,40.765 l 10.688,2.816 c 0.198,0.051 0.311,0.246 0.266,0.441 -0.046,0.164 -0.192,0.269 -0.356,0.269 z"
           id="path971" />
      </g>
      <g
         id="g977">
        <path
           d="m 27.949,44.282 c -0.051,0 -0.093,-0.011 -0.141,-0.025 L 24.82,43.039 c -0.187,-0.073 -0.271,-0.288 -0.198,-0.472 0.074,-0.181 0.288,-0.269 0.469,-0.2 l 2.992,1.217 c 0.184,0.074 0.277,0.289 0.201,0.472 -0.058,0.142 -0.194,0.226 -0.335,0.226 z"
           id="path975" />
      </g>
      <g
         id="g981">
        <path
           d="m 23.276,42.508 c -0.047,0 -0.096,-0.014 -0.144,-0.031 l -4.666,-1.96 c -0.184,-0.073 -0.274,-0.288 -0.195,-0.472 0.073,-0.184 0.288,-0.274 0.474,-0.195 l 4.666,1.963 c 0.187,0.079 0.271,0.291 0.199,0.471 -0.056,0.14 -0.192,0.224 -0.334,0.224 z"
           id="path979" />
      </g>
      <g
         id="g985">
        <path
           d="m 16.085,39.895 c -0.048,0 -0.09,-0.014 -0.138,-0.031 l -3.172,-1.308 c -0.189,-0.077 -0.277,-0.289 -0.2,-0.469 0.076,-0.187 0.288,-0.277 0.471,-0.198 l 3.175,1.305 c 0.184,0.076 0.277,0.288 0.198,0.471 -0.057,0.143 -0.192,0.23 -0.334,0.23 z"
           id="path983" />
      </g>
      <g
         id="g989">
        <path
           d="m 26.076,40.265 c -0.057,0 -0.107,-0.014 -0.161,-0.042 L 13.678,33.875 c -0.18,-0.096 -0.248,-0.313 -0.155,-0.491 0.088,-0.178 0.308,-0.238 0.483,-0.153 l 12.24,6.351 c 0.178,0.096 0.248,0.313 0.155,0.486 -0.068,0.123 -0.192,0.197 -0.325,0.197 z"
           id="path987" />
      </g>
      <g
         id="g993">
        <path
           d="m 12.255,33.26 c -0.051,0 -0.107,-0.011 -0.158,-0.037 L 9.018,31.735 C 8.837,31.641 8.758,31.424 8.849,31.246 8.933,31.065 9.151,30.989 9.334,31.081 l 3.079,1.495 c 0.181,0.082 0.254,0.3 0.169,0.478 -0.064,0.127 -0.191,0.206 -0.327,0.206 z"
           id="path991" />
      </g>
      <g
         id="g997">
        <path
           d="m 30.559,40.172 c -0.062,0 -0.136,-0.017 -0.198,-0.062 l -14.01,-9.15 c -0.164,-0.11 -0.215,-0.338 -0.102,-0.503 0.107,-0.166 0.333,-0.211 0.5,-0.107 l 14.01,9.152 c 0.167,0.112 0.212,0.338 0.105,0.502 -0.068,0.106 -0.181,0.168 -0.305,0.168 z"
           id="path995" />
      </g>
      <g
         id="g1001">
        <path
           d="m 14.401,29.334 c -0.068,0 -0.138,-0.015 -0.197,-0.059 l -1.681,-1.117 c -0.17,-0.109 -0.218,-0.336 -0.102,-0.508 0.11,-0.164 0.336,-0.206 0.5,-0.093 l 1.684,1.119 c 0.164,0.11 0.208,0.333 0.096,0.5 -0.068,0.107 -0.181,0.158 -0.3,0.158 z"
           id="path999" />
      </g>
      <g
         id="g1005">
        <path
           d="m 32.525,37.836 c -0.085,0 -0.169,-0.026 -0.234,-0.088 l -3.646,-3.082 c -0.147,-0.126 -0.17,-0.356 -0.04,-0.505 0.136,-0.155 0.358,-0.17 0.511,-0.04 l 3.641,3.077 c 0.152,0.135 0.169,0.364 0.045,0.508 -0.074,0.091 -0.178,0.13 -0.277,0.13 z"
           id="path1003" />
      </g>
      <g
         id="g1009">
        <path
           d="m 26.824,33.167 c -0.079,0 -0.158,-0.031 -0.228,-0.076 l -3.828,-3.085 c -0.152,-0.126 -0.181,-0.353 -0.053,-0.508 0.121,-0.164 0.353,-0.184 0.508,-0.057 l 3.827,3.082 c 0.155,0.127 0.18,0.354 0.057,0.506 -0.068,0.093 -0.18,0.138 -0.283,0.138 z"
           id="path1007" />
      </g>
      <g
         id="g1013">
        <path
           d="m 20.862,28.416 c -0.088,0 -0.179,-0.036 -0.251,-0.096 l -1.407,-1.325 c -0.152,-0.13 -0.159,-0.362 -0.023,-0.508 0.136,-0.147 0.367,-0.155 0.512,-0.017 l 1.415,1.316 c 0.141,0.138 0.155,0.37 0.017,0.515 -0.068,0.075 -0.167,0.115 -0.263,0.115 z"
           id="path1011" />
      </g>
      <g
         id="g1017">
        <path
           d="m 33.847,35.136 c -0.093,0 -0.181,-0.031 -0.254,-0.099 L 21.435,23.255 c -0.144,-0.135 -0.147,-0.367 -0.008,-0.511 0.139,-0.142 0.37,-0.145 0.511,-0.012 l 12.158,11.785 c 0.144,0.141 0.146,0.367 0.011,0.514 -0.074,0.074 -0.167,0.105 -0.26,0.105 z"
           id="path1015" />
      </g>
      <g
         id="g1021">
        <path
           d="m 20.192,21.116 c -0.09,0 -0.186,-0.034 -0.254,-0.104 l -1.494,-1.495 c -0.142,-0.144 -0.142,-0.375 0,-0.511 0.142,-0.144 0.376,-0.144 0.511,0 l 1.491,1.491 c 0.147,0.145 0.147,0.37 0,0.515 -0.067,0.071 -0.158,0.104 -0.254,0.104 z"
           id="path1019" />
      </g>
      <g
         id="g1025">
        <path
           d="m 27.584,23.277 c -0.104,0 -0.211,-0.048 -0.282,-0.136 l -5.975,-7.567 c -0.124,-0.155 -0.099,-0.39 0.057,-0.512 0.156,-0.121 0.385,-0.093 0.508,0.057 l 5.972,7.568 c 0.13,0.161 0.102,0.387 -0.057,0.508 -0.064,0.057 -0.14,0.082 -0.223,0.082 z"
           id="path1023" />
      </g>
      <g
         id="g1029">
        <path
           d="m 34.214,31.871 c -0.102,0 -0.208,-0.049 -0.28,-0.136 l -4.986,-6.384 c -0.124,-0.158 -0.092,-0.393 0.066,-0.511 0.161,-0.124 0.384,-0.093 0.505,0.064 l 4.982,6.382 c 0.125,0.158 0.096,0.384 -0.062,0.508 -0.061,0.054 -0.14,0.077 -0.225,0.077 z"
           id="path1027" />
      </g>
      <g
         id="g1033">
        <path
           d="m 38.779,32.692 c -0.113,0 -0.226,-0.048 -0.294,-0.15 L 31.74,22.65 c -0.113,-0.167 -0.071,-0.39 0.096,-0.503 0.164,-0.11 0.39,-0.064 0.5,0.096 l 6.749,9.886 c 0.107,0.172 0.065,0.398 -0.099,0.506 -0.066,0.046 -0.133,0.057 -0.207,0.057 z"
           id="path1031" />
      </g>
      <g
         id="g1037">
        <path
           d="m 30.938,21.303 c -0.119,0 -0.226,-0.054 -0.299,-0.15 l -2.695,-3.822 c -0.113,-0.164 -0.079,-0.387 0.084,-0.503 0.167,-0.113 0.396,-0.077 0.506,0.087 l 2.694,3.82 c 0.122,0.161 0.082,0.38 -0.087,0.502 -0.062,0.04 -0.136,0.066 -0.203,0.066 z"
           id="path1035" />
      </g>
      <g
         id="g1041">
        <path
           d="m 37.954,24.862 c -0.13,0 -0.254,-0.067 -0.322,-0.186 l -4.678,-8.7 c -0.096,-0.178 -0.032,-0.396 0.144,-0.492 0.175,-0.09 0.399,-0.025 0.489,0.15 l 4.683,8.697 c 0.096,0.178 0.034,0.398 -0.141,0.491 -0.059,0.029 -0.115,0.04 -0.175,0.04 z"
           id="path1039" />
      </g>
      <g
         id="g1045">
        <path
           d="m 32.152,13.272 c -0.136,0 -0.263,-0.071 -0.328,-0.201 l -1.023,-2.054 c -0.087,-0.184 -0.02,-0.398 0.158,-0.486 0.175,-0.087 0.396,-0.014 0.486,0.167 l 1.025,2.048 c 0.087,0.175 0.02,0.395 -0.161,0.483 -0.05,0.029 -0.106,0.043 -0.157,0.043 z"
           id="path1043" />
      </g>
      <g
         id="g1049">
        <path
           d="m 42.064,27.854 c -0.15,0 -0.286,-0.09 -0.342,-0.231 L 36.776,14.358 c -0.071,-0.186 0.025,-0.401 0.212,-0.469 0.186,-0.071 0.395,0.025 0.463,0.215 L 42.4,27.365 c 0.073,0.186 -0.022,0.398 -0.212,0.466 -0.037,0.014 -0.082,0.023 -0.124,0.023 z"
           id="path1047" />
      </g>
      <g
         id="g1053">
        <path
           d="m 36.352,12.614 c -0.155,0 -0.291,-0.088 -0.347,-0.243 L 35.076,9.566 c -0.065,-0.187 0.036,-0.396 0.223,-0.458 0.198,-0.062 0.398,0.04 0.46,0.226 l 0.935,2.805 c 0.062,0.192 -0.034,0.396 -0.226,0.458 -0.039,0.011 -0.079,0.017 -0.116,0.017 z"
           id="path1051" />
      </g>
      <g
         id="g1057">
        <path
           d="m 45.315,30.735 c -0.159,0 -0.305,-0.105 -0.351,-0.271 l -0.839,-3.362 c -0.048,-0.198 0.07,-0.393 0.268,-0.44 0.192,-0.051 0.385,0.076 0.435,0.268 l 0.842,3.362 c 0.045,0.189 -0.071,0.381 -0.271,0.438 -0.022,0.005 -0.055,0.005 -0.084,0.005 z"
           id="path1055" />
      </g>
      <g
         id="g1061">
        <path
           d="m 43.835,24.77 c -0.158,0 -0.305,-0.108 -0.344,-0.271 l -1.594,-6.26 c -0.045,-0.189 0.071,-0.387 0.263,-0.438 0.189,-0.048 0.393,0.071 0.443,0.266 l 1.588,6.256 c 0.044,0.191 -0.074,0.386 -0.266,0.435 -0.028,0.012 -0.056,0.012 -0.09,0.012 z"
           id="path1059" />
      </g>
      <g
         id="g1065">
        <path
           d="m 41.773,16.264 c -0.17,0 -0.311,-0.113 -0.353,-0.274 l -1.207,-4.853 c -0.045,-0.189 0.077,-0.384 0.266,-0.435 0.197,-0.06 0.393,0.07 0.44,0.263 l 1.198,4.844 c 0.051,0.198 -0.068,0.398 -0.26,0.44 -0.03,0.012 -0.061,0.015 -0.084,0.015 z"
           id="path1063" />
      </g>
      <g
         id="g1069">
        <path
           d="m 46.35,19.899 c -0.187,0 -0.345,-0.136 -0.365,-0.323 l -0.746,-7.38 c -0.02,-0.195 0.127,-0.375 0.324,-0.393 0.209,-0.028 0.379,0.121 0.396,0.319 l 0.745,7.387 c 0.017,0.195 -0.125,0.37 -0.322,0.39 -0.01,0 -0.027,0 -0.032,0 z"
           id="path1067" />
      </g>
      <g
         id="g1073">
        <path
           d="m 45.411,10.19 c -0.181,0 -0.339,-0.138 -0.358,-0.322 L 44.598,6.052 c -0.02,-0.201 0.119,-0.379 0.319,-0.407 0.195,-0.02 0.375,0.124 0.398,0.322 l 0.458,3.819 c 0.017,0.195 -0.119,0.379 -0.319,0.398 -0.015,0.006 -0.026,0.006 -0.043,0.006 z"
           id="path1071" />
      </g>
      <g
         id="g1077">
        <path
           d="m 75.515,51.098 h -3.359 c -0.203,0 -0.361,-0.161 -0.361,-0.358 0,-0.2 0.158,-0.364 0.361,-0.364 h 3.359 c 0.205,0 0.363,0.164 0.363,0.364 0,0.197 -0.158,0.358 -0.363,0.358 z"
           id="path1075" />
      </g>
      <g
         id="g1081">
        <path
           d="m 77.664,50.912 c -0.198,0 -0.358,-0.16 -0.358,-0.353 -0.003,-0.208 0.16,-0.371 0.358,-0.371 l 6.242,-0.05 h 0.003 c 0.201,0 0.361,0.164 0.361,0.361 0.003,0.195 -0.16,0.358 -0.361,0.358 l -6.24,0.055 c 0,0 0,0 -0.005,0 z"
           id="path1079" />
      </g>
      <g
         id="g1085">
        <path
           d="m 88.12,50.818 h -3.076 c -0.194,0 -0.358,-0.161 -0.358,-0.354 0,-0.205 0.164,-0.367 0.358,-0.367 h 3.076 c 0.204,0 0.368,0.162 0.368,0.367 0,0.193 -0.164,0.354 -0.368,0.354 z"
           id="path1083" />
      </g>
      <g
         id="g1089">
        <path
           d="m 78.867,48.22 c -0.182,0 -0.339,-0.138 -0.359,-0.322 -0.024,-0.195 0.113,-0.378 0.309,-0.406 l 9.666,-1.257 c 0.209,-0.017 0.384,0.116 0.407,0.313 0.024,0.195 -0.113,0.376 -0.311,0.404 l -9.664,1.26 C 78.9,48.211 78.884,48.22 78.867,48.22 Z"
           id="path1087" />
      </g>
      <g
         id="g1093">
        <path
           d="m 90.651,46.612 c -0.178,0 -0.333,-0.122 -0.36,-0.299 -0.034,-0.201 0.101,-0.387 0.299,-0.415 l 3.457,-0.562 c 0.197,-0.034 0.382,0.105 0.413,0.296 0.034,0.201 -0.097,0.387 -0.297,0.421 l -3.46,0.553 c -0.017,0.006 -0.04,0.006 -0.052,0.006 z"
           id="path1091" />
      </g>
      <g
         id="g1097">
        <path
           d="m 72.619,46.612 c -0.158,0 -0.305,-0.102 -0.351,-0.263 -0.051,-0.198 0.065,-0.393 0.261,-0.444 l 7.377,-1.965 c 0.195,-0.051 0.391,0.07 0.441,0.263 0.05,0.192 -0.062,0.387 -0.254,0.443 l -7.379,1.958 c -0.033,0.002 -0.067,0.008 -0.095,0.008 z"
           id="path1095" />
      </g>
      <g
         id="g1101">
        <path
           d="m 81.915,44.291 c -0.161,0 -0.303,-0.104 -0.351,-0.268 -0.05,-0.195 0.068,-0.39 0.257,-0.441 l 10.697,-2.816 c 0.195,-0.051 0.391,0.065 0.443,0.263 0.049,0.189 -0.066,0.387 -0.259,0.446 l -10.701,2.808 c -0.026,0.002 -0.055,0.008 -0.086,0.008 z"
           id="path1099" />
      </g>
      <g
         id="g1105">
        <path
           d="m 71.128,44.282 c -0.145,0 -0.283,-0.084 -0.337,-0.226 -0.076,-0.184 0.009,-0.398 0.197,-0.472 l 2.992,-1.217 c 0.181,-0.068 0.396,0.02 0.469,0.2 0.079,0.184 -0.011,0.398 -0.197,0.472 l -2.992,1.218 c -0.042,0.014 -0.09,0.025 -0.132,0.025 z"
           id="path1103" />
      </g>
      <g
         id="g1109">
        <path
           d="m 75.797,42.508 c -0.142,0 -0.277,-0.084 -0.331,-0.223 -0.082,-0.181 0.009,-0.392 0.189,-0.471 l 4.669,-1.963 c 0.187,-0.079 0.401,0.011 0.476,0.195 0.081,0.184 -0.007,0.398 -0.192,0.472 l -4.673,1.96 c -0.039,0.016 -0.09,0.03 -0.138,0.03 z"
           id="path1107" />
      </g>
      <g
         id="g1113">
        <path
           d="m 82.985,39.895 c -0.138,0 -0.271,-0.087 -0.333,-0.229 -0.079,-0.183 0.011,-0.395 0.197,-0.471 l 3.176,-1.305 c 0.186,-0.079 0.401,0.011 0.475,0.198 0.073,0.181 -0.013,0.393 -0.198,0.469 l -3.175,1.308 c -0.045,0.016 -0.096,0.03 -0.142,0.03 z"
           id="path1111" />
      </g>
      <g
         id="g1117">
        <path
           d="m 72.994,40.265 c -0.129,0 -0.257,-0.074 -0.318,-0.197 -0.094,-0.173 -0.028,-0.39 0.152,-0.486 l 12.234,-6.351 c 0.177,-0.096 0.395,-0.025 0.487,0.153 0.091,0.178 0.023,0.396 -0.151,0.491 l -12.237,6.348 c -0.051,0.028 -0.113,0.042 -0.167,0.042 z"
           id="path1115" />
      </g>
      <g
         id="g1121">
        <path
           d="m 86.821,33.26 c -0.135,0 -0.266,-0.079 -0.327,-0.206 -0.088,-0.178 -0.012,-0.396 0.167,-0.478 l 3.084,-1.495 c 0.175,-0.093 0.393,-0.016 0.482,0.165 0.086,0.178 0.009,0.395 -0.169,0.489 l -3.084,1.488 c -0.048,0.026 -0.102,0.037 -0.153,0.037 z"
           id="path1119" />
      </g>
      <g
         id="g1125">
        <path
           d="m 68.513,40.172 c -0.12,0 -0.234,-0.062 -0.303,-0.167 -0.111,-0.164 -0.065,-0.39 0.104,-0.502 l 14.011,-9.152 c 0.165,-0.104 0.393,-0.059 0.503,0.107 0.107,0.165 0.062,0.393 -0.106,0.503 L 68.71,40.11 c -0.061,0.045 -0.13,0.062 -0.197,0.062 z"
           id="path1123" />
      </g>
      <g
         id="g1129">
        <path
           d="m 84.673,29.334 c -0.119,0 -0.234,-0.051 -0.303,-0.159 -0.113,-0.167 -0.062,-0.39 0.101,-0.5 l 1.68,-1.119 c 0.163,-0.112 0.389,-0.07 0.502,0.093 0.11,0.172 0.067,0.399 -0.102,0.508 l -1.678,1.117 c -0.063,0.045 -0.136,0.06 -0.2,0.06 z"
           id="path1127" />
      </g>
      <g
         id="g1133">
        <path
           d="m 66.549,37.836 c -0.104,0 -0.207,-0.04 -0.275,-0.13 -0.132,-0.144 -0.111,-0.373 0.041,-0.508 l 3.644,-3.077 c 0.149,-0.13 0.381,-0.115 0.509,0.04 0.127,0.149 0.113,0.379 -0.045,0.505 l -3.639,3.082 c -0.068,0.063 -0.153,0.088 -0.235,0.088 z"
           id="path1131" />
      </g>
      <g
         id="g1137">
        <path
           d="m 72.249,33.167 c -0.104,0 -0.212,-0.045 -0.279,-0.138 -0.131,-0.152 -0.102,-0.378 0.051,-0.506 l 3.833,-3.082 c 0.155,-0.127 0.381,-0.107 0.505,0.057 0.128,0.155 0.1,0.382 -0.057,0.508 l -3.824,3.085 c -0.069,0.045 -0.15,0.076 -0.229,0.076 z"
           id="path1135" />
      </g>
      <g
         id="g1141">
        <path
           d="m 78.212,28.416 c -0.097,0 -0.192,-0.04 -0.266,-0.115 -0.135,-0.145 -0.13,-0.376 0.017,-0.515 l 1.413,-1.316 c 0.152,-0.138 0.373,-0.13 0.514,0.017 0.136,0.146 0.13,0.378 -0.018,0.508 l -1.411,1.325 c -0.071,0.059 -0.158,0.096 -0.249,0.096 z"
           id="path1139" />
      </g>
      <g
         id="g1145">
        <path
           d="m 65.227,35.136 c -0.094,0 -0.189,-0.031 -0.262,-0.104 -0.137,-0.147 -0.137,-0.373 0.011,-0.514 L 77.133,22.733 c 0.142,-0.133 0.373,-0.13 0.514,0.012 0.136,0.144 0.131,0.375 -0.008,0.511 l -12.16,11.782 c -0.069,0.067 -0.159,0.098 -0.252,0.098 z"
           id="path1143" />
      </g>
      <g
         id="g1149">
        <path
           d="m 78.881,21.116 c -0.093,0 -0.188,-0.034 -0.26,-0.104 -0.138,-0.145 -0.138,-0.37 0,-0.515 l 1.495,-1.491 c 0.146,-0.144 0.372,-0.144 0.514,0 0.136,0.136 0.136,0.368 0,0.511 l -1.497,1.495 c -0.071,0.071 -0.158,0.104 -0.252,0.104 z"
           id="path1147" />
      </g>
      <g
         id="g1153">
        <path
           d="m 71.489,23.277 c -0.079,0 -0.161,-0.025 -0.226,-0.082 -0.155,-0.121 -0.188,-0.348 -0.062,-0.508 l 5.982,-7.568 c 0.122,-0.149 0.35,-0.178 0.506,-0.057 0.155,0.122 0.181,0.356 0.059,0.512 l -5.977,7.567 c -0.073,0.088 -0.177,0.136 -0.282,0.136 z"
           id="path1151" />
      </g>
      <g
         id="g1157">
        <path
           d="m 64.856,31.871 c -0.076,0 -0.158,-0.022 -0.227,-0.077 -0.157,-0.125 -0.183,-0.35 -0.062,-0.508 l 4.983,-6.382 c 0.121,-0.158 0.35,-0.188 0.508,-0.064 0.158,0.119 0.184,0.353 0.062,0.506 l -4.983,6.39 c -0.066,0.086 -0.172,0.135 -0.281,0.135 z"
           id="path1155" />
      </g>
      <g
         id="g1161">
        <path
           d="m 60.292,32.692 c -0.068,0 -0.142,-0.011 -0.203,-0.057 -0.164,-0.107 -0.21,-0.333 -0.097,-0.506 l 6.745,-9.886 c 0.107,-0.161 0.34,-0.207 0.503,-0.096 0.164,0.113 0.207,0.336 0.094,0.503 l -6.743,9.892 c -0.07,0.102 -0.181,0.15 -0.299,0.15 z"
           id="path1159" />
      </g>
      <g
         id="g1165">
        <path
           d="m 68.139,21.303 c -0.074,0 -0.146,-0.026 -0.208,-0.065 -0.165,-0.122 -0.204,-0.341 -0.091,-0.502 l 2.698,-3.82 c 0.114,-0.164 0.338,-0.2 0.499,-0.087 0.164,0.116 0.206,0.339 0.091,0.503 l -2.694,3.822 c -0.072,0.096 -0.182,0.149 -0.295,0.149 z"
           id="path1163" />
      </g>
      <g
         id="g1169">
        <path
           d="m 61.116,24.862 c -0.056,0 -0.115,-0.011 -0.168,-0.04 -0.177,-0.093 -0.244,-0.313 -0.15,-0.491 l 4.686,-8.697 c 0.094,-0.175 0.316,-0.246 0.495,-0.15 0.172,0.096 0.24,0.313 0.138,0.492 l -4.681,8.7 c -0.065,0.118 -0.19,0.186 -0.32,0.186 z"
           id="path1167" />
      </g>
      <g
         id="g1173">
        <path
           d="m 66.924,13.272 c -0.057,0 -0.112,-0.014 -0.163,-0.042 -0.179,-0.088 -0.255,-0.308 -0.164,-0.483 l 1.028,-2.048 c 0.093,-0.181 0.311,-0.254 0.488,-0.167 0.173,0.087 0.249,0.302 0.158,0.486 l -1.025,2.054 c -0.061,0.13 -0.188,0.2 -0.322,0.2 z"
           id="path1171" />
      </g>
      <g
         id="g1177">
        <path
           d="m 57.01,27.854 c -0.046,0 -0.092,-0.009 -0.131,-0.022 -0.183,-0.068 -0.276,-0.281 -0.208,-0.466 l 4.948,-13.262 c 0.071,-0.189 0.277,-0.286 0.47,-0.215 0.184,0.068 0.276,0.283 0.208,0.469 l -4.952,13.265 c -0.05,0.14 -0.189,0.231 -0.335,0.231 z"
           id="path1175" />
      </g>
      <g
         id="g1181">
        <path
           d="m 62.721,12.614 c -0.034,0 -0.073,-0.006 -0.116,-0.017 -0.186,-0.062 -0.29,-0.266 -0.228,-0.458 l 0.938,-2.805 c 0.06,-0.187 0.26,-0.288 0.452,-0.226 0.191,0.062 0.293,0.271 0.231,0.458 l -0.933,2.805 c -0.049,0.155 -0.192,0.243 -0.344,0.243 z"
           id="path1179" />
      </g>
      <g
         id="g1185">
        <path
           d="m 53.752,30.735 c -0.028,0 -0.058,0 -0.087,-0.006 -0.194,-0.057 -0.313,-0.249 -0.266,-0.438 l 0.848,-3.362 c 0.042,-0.2 0.242,-0.316 0.435,-0.268 0.192,0.048 0.312,0.243 0.267,0.44 L 54.1,30.464 c -0.039,0.166 -0.184,0.271 -0.348,0.271 z"
           id="path1183" />
      </g>
      <g
         id="g1189">
        <path
           d="m 55.235,24.77 c -0.034,0 -0.062,0 -0.09,-0.012 -0.195,-0.049 -0.313,-0.244 -0.266,-0.435 l 1.593,-6.256 c 0.051,-0.195 0.243,-0.314 0.435,-0.266 0.198,0.051 0.312,0.249 0.267,0.438 l -1.588,6.26 c -0.045,0.163 -0.192,0.271 -0.351,0.271 z"
           id="path1187" />
      </g>
      <g
         id="g1193">
        <path
           d="m 57.303,16.264 c -0.027,0 -0.059,-0.003 -0.084,-0.014 -0.192,-0.042 -0.313,-0.243 -0.267,-0.44 l 1.198,-4.844 c 0.051,-0.192 0.243,-0.317 0.44,-0.263 0.192,0.051 0.311,0.246 0.264,0.435 l -1.201,4.853 c -0.042,0.16 -0.186,0.273 -0.35,0.273 z"
           id="path1191" />
      </g>
      <g
         id="g1197">
        <path
           d="m 52.728,19.899 c -0.011,0 -0.028,0 -0.034,0 -0.197,-0.02 -0.345,-0.195 -0.327,-0.39 l 0.746,-7.387 c 0.021,-0.198 0.186,-0.345 0.4,-0.319 0.192,0.017 0.34,0.197 0.316,0.393 l -0.743,7.38 c -0.017,0.188 -0.178,0.323 -0.358,0.323 z"
           id="path1195" />
      </g>
      <g
         id="g1201">
        <path
           d="m 53.66,10.19 c -0.012,0 -0.026,0 -0.043,-0.005 -0.197,-0.02 -0.339,-0.204 -0.312,-0.398 l 0.45,-3.819 c 0.023,-0.198 0.203,-0.339 0.401,-0.322 0.199,0.028 0.339,0.206 0.314,0.407 l -0.45,3.816 c -0.023,0.183 -0.177,0.321 -0.36,0.321 z"
           id="path1199" />
      </g>
      <g
         id="g1205">
        <path
           d="m 49.614,30.458 c -0.197,0 -0.362,-0.161 -0.362,-0.361 V 26.08 c 0,-0.197 0.165,-0.362 0.362,-0.362 0.197,0 0.362,0.165 0.362,0.362 v 4.017 c 10e-4,0.2 -0.164,0.361 -0.362,0.361 z"
           id="path1203" />
      </g>
      <g
         id="g1209">
        <path
           d="m 49.521,24.758 c -0.194,0 -0.36,-0.164 -0.36,-0.358 v -4.023 c 0,-0.192 0.166,-0.358 0.36,-0.358 0.204,0 0.365,0.166 0.365,0.358 V 24.4 c 0,0.194 -0.161,0.358 -0.365,0.358 z"
           id="path1207" />
      </g>
      <g
         id="g1213">
        <path
           d="m 49.428,18.97 c -0.198,0 -0.358,-0.161 -0.358,-0.361 V 8.515 c 0,-0.191 0.161,-0.353 0.358,-0.353 0.204,0 0.361,0.162 0.361,0.353 v 10.093 c 0,0.201 -0.157,0.362 -0.361,0.362 z"
           id="path1211" />
      </g>
      <g
         id="g1217">
        <path
           d="m 10.54,54.847 c -0.178,0 -0.336,-0.128 -0.359,-0.311 -0.022,-0.199 0.113,-0.379 0.311,-0.407 l 9.669,-1.254 c 0.206,-0.026 0.381,0.11 0.403,0.308 0.029,0.198 -0.113,0.385 -0.311,0.406 l -9.668,1.258 c -0.014,0 -0.03,0 -0.045,0 z"
           id="path1215" />
      </g>
      <g
         id="g1221">
        <path
           d="m 4.967,55.751 c -0.175,0 -0.328,-0.129 -0.356,-0.303 -0.034,-0.197 0.102,-0.385 0.299,-0.419 l 3.457,-0.556 c 0.192,-0.034 0.381,0.098 0.413,0.297 0.034,0.198 -0.096,0.38 -0.296,0.414 l -3.457,0.563 c -0.02,0.004 -0.037,0.004 -0.06,0.004 z"
           id="path1219" />
      </g>
      <g
         id="g1225">
        <path
           d="m 19.074,57.152 c -0.164,0 -0.305,-0.108 -0.353,-0.271 -0.048,-0.187 0.065,-0.387 0.257,-0.439 l 7.381,-1.962 c 0.198,-0.054 0.393,0.06 0.443,0.255 0.051,0.197 -0.062,0.393 -0.254,0.448 l -7.38,1.957 c -0.038,0.003 -0.064,0.012 -0.094,0.012 z"
           id="path1223" />
      </g>
      <g
         id="g1229">
        <path
           d="m 6.464,60.326 c -0.164,0 -0.308,-0.107 -0.351,-0.271 -0.051,-0.191 0.062,-0.39 0.254,-0.439 l 10.695,-2.808 c 0.197,-0.052 0.39,0.061 0.446,0.253 0.045,0.192 -0.068,0.393 -0.266,0.444 l -10.687,2.81 c -0.032,0.006 -0.062,0.011 -0.091,0.011 z"
           id="path1227" />
      </g>
      <g
         id="g1233">
        <path
           d="m 24.96,58.738 c -0.145,0 -0.283,-0.084 -0.339,-0.222 -0.073,-0.187 0.012,-0.396 0.198,-0.479 l 2.988,-1.215 c 0.187,-0.064 0.401,0.023 0.475,0.207 0.076,0.183 -0.017,0.393 -0.201,0.469 l -2.992,1.215 C 25.05,58.732 25,58.738 24.96,58.738 Z"
           id="path1231" />
      </g>
      <g
         id="g1237">
        <path
           d="m 18.605,61.267 c -0.138,0 -0.277,-0.087 -0.333,-0.227 -0.08,-0.18 0.011,-0.395 0.195,-0.477 l 4.666,-1.957 c 0.187,-0.079 0.398,0.005 0.478,0.192 0.072,0.187 -0.012,0.397 -0.199,0.471 l -4.666,1.966 c -0.045,0.021 -0.094,0.032 -0.141,0.032 z"
           id="path1235" />
      </g>
      <g
         id="g1241">
        <path
           d="m 12.91,63.225 c -0.141,0 -0.283,-0.085 -0.336,-0.223 -0.077,-0.184 0.011,-0.402 0.2,-0.478 l 3.172,-1.303 c 0.184,-0.082 0.393,0.011 0.472,0.195 0.08,0.184 -0.014,0.395 -0.198,0.469 l -3.175,1.312 C 13,63.219 12.956,63.225 12.91,63.225 Z"
           id="path1239" />
      </g>
      <g
         id="g1245">
        <path
           d="m 13.842,67.896 c -0.13,0 -0.254,-0.074 -0.319,-0.2 -0.093,-0.176 -0.025,-0.388 0.155,-0.489 L 25.915,60.86 c 0.175,-0.088 0.39,-0.021 0.486,0.156 0.093,0.171 0.022,0.39 -0.155,0.487 l -12.24,6.348 c -0.051,0.032 -0.11,0.045 -0.164,0.045 z"
           id="path1243" />
      </g>
      <g
         id="g1249">
        <path
           d="m 9.17,70.04 c -0.136,0 -0.259,-0.072 -0.321,-0.2 -0.091,-0.181 -0.012,-0.393 0.169,-0.486 l 3.079,-1.497 c 0.175,-0.084 0.395,-0.008 0.486,0.173 0.084,0.181 0.011,0.394 -0.169,0.483 L 9.335,70.007 C 9.278,70.029 9.224,70.04 9.17,70.04 Z"
           id="path1247" />
      </g>
      <g
         id="g1253">
        <path
           d="m 16.548,70.789 c -0.119,0 -0.231,-0.057 -0.299,-0.17 -0.113,-0.16 -0.062,-0.382 0.102,-0.5 l 14.011,-9.148 c 0.169,-0.11 0.393,-0.065 0.503,0.106 0.107,0.167 0.062,0.387 -0.105,0.5 l -14.01,9.155 c -0.063,0.04 -0.134,0.057 -0.202,0.057 z"
           id="path1251" />
      </g>
      <g
         id="g1257">
        <path
           d="m 12.718,73.588 c -0.113,0 -0.227,-0.05 -0.297,-0.155 -0.116,-0.169 -0.068,-0.393 0.102,-0.506 l 1.681,-1.118 c 0.161,-0.109 0.39,-0.067 0.497,0.099 0.112,0.165 0.068,0.396 -0.096,0.501 l -1.684,1.12 c -0.059,0.043 -0.129,0.059 -0.203,0.059 z"
           id="path1255" />
      </g>
      <g
         id="g1261">
        <path
           d="m 28.878,67.055 c -0.099,0 -0.201,-0.042 -0.274,-0.131 -0.13,-0.151 -0.108,-0.38 0.04,-0.508 l 3.646,-3.082 c 0.155,-0.126 0.381,-0.109 0.511,0.04 0.125,0.152 0.107,0.382 -0.045,0.515 l -3.641,3.081 c -0.071,0.054 -0.15,0.085 -0.237,0.085 z"
           id="path1259" />
      </g>
      <g
         id="g1265">
        <path
           d="m 22.995,71.718 c -0.108,0 -0.209,-0.039 -0.279,-0.129 -0.128,-0.158 -0.099,-0.388 0.053,-0.506 l 3.828,-3.087 c 0.155,-0.119 0.381,-0.1 0.511,0.053 0.124,0.161 0.099,0.385 -0.057,0.511 l -3.827,3.088 c -0.066,0.051 -0.151,0.07 -0.229,0.07 z"
           id="path1263" />
      </g>
      <g
         id="g1269">
        <path
           d="m 19.444,74.713 c -0.093,0 -0.189,-0.04 -0.263,-0.116 -0.136,-0.146 -0.129,-0.373 0.023,-0.511 l 1.407,-1.317 c 0.149,-0.138 0.38,-0.132 0.514,0.018 0.138,0.141 0.124,0.372 -0.017,0.508 l -1.415,1.317 c -0.068,0.069 -0.156,0.101 -0.249,0.101 z"
           id="path1267" />
      </g>
      <g
         id="g1273">
        <path
           d="m 21.689,78.447 c -0.094,0 -0.192,-0.034 -0.263,-0.102 -0.139,-0.152 -0.135,-0.382 0.008,-0.515 L 33.592,66.046 c 0.141,-0.14 0.373,-0.133 0.514,0.011 0.135,0.142 0.133,0.37 -0.011,0.511 l -12.158,11.78 c -0.067,0.068 -0.157,0.099 -0.248,0.099 z"
           id="path1271" />
      </g>
      <g
         id="g1277">
        <path
           d="m 18.701,82.187 c -0.091,0 -0.187,-0.036 -0.257,-0.107 -0.142,-0.144 -0.142,-0.37 0,-0.508 l 1.494,-1.497 c 0.141,-0.145 0.367,-0.145 0.508,0 0.147,0.138 0.147,0.367 0,0.508 l -1.491,1.497 c -0.068,0.07 -0.164,0.107 -0.254,0.107 z"
           id="path1275" />
      </g>
      <g
         id="g1281">
        <path
           d="m 21.61,86.099 c -0.082,0 -0.158,-0.027 -0.227,-0.079 -0.155,-0.127 -0.18,-0.355 -0.057,-0.508 l 5.975,-7.564 c 0.121,-0.161 0.353,-0.184 0.505,-0.06 0.158,0.121 0.187,0.351 0.057,0.508 l -5.972,7.562 c -0.069,0.093 -0.173,0.141 -0.281,0.141 z"
           id="path1279" />
      </g>
      <g
         id="g1285">
        <path
           d="m 29.237,76.323 c -0.079,0 -0.158,-0.022 -0.223,-0.079 -0.158,-0.122 -0.189,-0.348 -0.066,-0.506 l 4.986,-6.387 c 0.122,-0.153 0.351,-0.184 0.506,-0.06 0.158,0.124 0.187,0.345 0.062,0.506 l -4.982,6.381 c -0.071,0.096 -0.175,0.145 -0.283,0.145 z"
           id="path1283" />
      </g>
      <g
         id="g1289">
        <path
           d="m 32.039,78.998 c -0.068,0 -0.141,-0.018 -0.203,-0.057 -0.167,-0.119 -0.209,-0.343 -0.096,-0.509 l 6.745,-9.892 c 0.113,-0.161 0.333,-0.204 0.5,-0.094 0.164,0.107 0.206,0.339 0.099,0.505 l -6.749,9.888 c -0.067,0.105 -0.183,0.159 -0.296,0.159 z"
           id="path1287" />
      </g>
      <g
         id="g1293">
        <path
           d="m 28.24,84.322 c -0.071,0 -0.144,-0.022 -0.212,-0.068 -0.164,-0.109 -0.198,-0.339 -0.084,-0.499 l 2.695,-3.825 c 0.116,-0.161 0.345,-0.197 0.503,-0.088 0.169,0.119 0.208,0.343 0.087,0.509 l -2.694,3.819 c -0.072,0.1 -0.18,0.152 -0.295,0.152 z"
           id="path1291" />
      </g>
      <g
         id="g1297">
        <path
           d="m 33.271,85.639 c -0.057,0 -0.119,-0.014 -0.172,-0.039 -0.175,-0.1 -0.24,-0.316 -0.144,-0.492 l 4.678,-8.7 c 0.099,-0.172 0.319,-0.239 0.497,-0.141 0.175,0.093 0.237,0.308 0.141,0.488 l -4.683,8.7 c -0.063,0.121 -0.187,0.184 -0.317,0.184 z"
           id="path1295" />
      </g>
      <g
         id="g1301">
        <path
           d="m 31.124,90.588 c -0.054,0 -0.113,-0.012 -0.164,-0.034 -0.178,-0.094 -0.246,-0.308 -0.158,-0.489 l 1.023,-2.05 c 0.09,-0.179 0.311,-0.258 0.486,-0.164 0.18,0.091 0.248,0.308 0.161,0.483 l -1.025,2.057 c -0.064,0.129 -0.193,0.197 -0.323,0.197 z"
           id="path1299" />
      </g>
      <g
         id="g1305">
        <path
           d="m 37.118,87.214 c -0.048,0 -0.085,-0.005 -0.13,-0.019 -0.187,-0.07 -0.283,-0.283 -0.212,-0.473 L 41.722,73.46 c 0.074,-0.178 0.283,-0.279 0.466,-0.209 0.19,0.068 0.286,0.276 0.212,0.466 l -4.949,13.262 c -0.051,0.146 -0.192,0.235 -0.333,0.235 z"
           id="path1303" />
      </g>
      <g
         id="g1309">
        <path
           d="m 35.415,91.994 c -0.037,0 -0.073,-0.008 -0.116,-0.023 -0.187,-0.064 -0.288,-0.265 -0.223,-0.454 l 0.929,-2.802 c 0.068,-0.194 0.268,-0.294 0.463,-0.231 0.192,0.064 0.288,0.271 0.226,0.457 l -0.935,2.802 c -0.048,0.152 -0.189,0.251 -0.344,0.251 z"
           id="path1307" />
      </g>
      <g
         id="g1313">
        <path
           d="m 44.479,74.431 c -0.029,0 -0.062,-0.004 -0.085,-0.009 -0.198,-0.051 -0.316,-0.245 -0.268,-0.438 l 0.839,-3.367 c 0.051,-0.192 0.243,-0.312 0.435,-0.26 0.201,0.048 0.316,0.245 0.271,0.435 l -0.842,3.361 c -0.039,0.169 -0.186,0.278 -0.35,0.278 z"
           id="path1311" />
      </g>
      <g
         id="g1317">
        <path
           d="m 42.253,83.291 c -0.031,0 -0.062,-0.003 -0.093,-0.012 -0.192,-0.048 -0.308,-0.242 -0.263,-0.435 l 1.594,-6.26 c 0.045,-0.192 0.246,-0.311 0.435,-0.262 0.192,0.053 0.311,0.251 0.266,0.439 l -1.588,6.261 c -0.043,0.163 -0.192,0.269 -0.351,0.269 z"
           id="path1315" />
      </g>
      <g
         id="g1321">
        <path
           d="m 40.564,90.394 c -0.023,0 -0.057,-0.003 -0.085,-0.01 -0.189,-0.054 -0.311,-0.246 -0.266,-0.438 l 1.207,-4.852 c 0.047,-0.192 0.24,-0.306 0.437,-0.261 0.192,0.052 0.311,0.246 0.26,0.438 l -1.198,4.848 c -0.039,0.166 -0.186,0.275 -0.355,0.275 z"
           id="path1319" />
      </g>
      <g
         id="g1325">
        <path
           d="m 45.601,89.284 c -0.008,0 -0.025,0 -0.037,0 -0.197,-0.023 -0.344,-0.2 -0.324,-0.4 l 0.746,-7.377 c 0.02,-0.198 0.189,-0.354 0.398,-0.328 0.197,0.025 0.339,0.2 0.322,0.4 L 45.96,88.96 c -0.017,0.187 -0.179,0.324 -0.359,0.324 z"
           id="path1323" />
      </g>
      <g
         id="g1329">
        <path
           d="m 44.962,95.435 c -0.017,0 -0.028,0 -0.045,0 -0.2,-0.026 -0.339,-0.203 -0.319,-0.403 l 0.455,-3.821 c 0.025,-0.192 0.209,-0.335 0.401,-0.313 0.2,0.021 0.336,0.205 0.319,0.405 l -0.458,3.812 c -0.016,0.185 -0.169,0.32 -0.353,0.32 z"
           id="path1327" />
      </g>
      <g
         id="g1333">
        <path
           d="m 88.527,54.847 c -0.012,0 -0.027,0 -0.045,0 l -9.666,-1.258 c -0.195,-0.021 -0.333,-0.208 -0.309,-0.406 0.021,-0.197 0.201,-0.334 0.407,-0.308 l 9.664,1.254 c 0.197,0.028 0.335,0.208 0.311,0.407 -0.023,0.183 -0.177,0.311 -0.362,0.311 z"
           id="path1331" />
      </g>
      <g
         id="g1337">
        <path
           d="m 94.109,55.751 c -0.023,0 -0.042,0 -0.062,-0.003 L 90.59,55.185 c -0.198,-0.034 -0.333,-0.216 -0.299,-0.414 0.034,-0.199 0.22,-0.325 0.412,-0.297 l 3.46,0.556 c 0.2,0.034 0.331,0.222 0.297,0.419 -0.028,0.173 -0.179,0.302 -0.351,0.302 z"
           id="path1335" />
      </g>
      <g
         id="g1341">
        <path
           d="m 79.997,57.152 c -0.028,0 -0.057,-0.01 -0.091,-0.013 l -7.377,-1.957 c -0.195,-0.056 -0.312,-0.251 -0.261,-0.448 0.054,-0.195 0.249,-0.309 0.446,-0.255 l 7.379,1.962 c 0.191,0.053 0.304,0.253 0.254,0.439 -0.041,0.164 -0.192,0.272 -0.35,0.272 z"
           id="path1339" />
      </g>
      <g
         id="g1345">
        <path
           d="m 92.608,60.326 c -0.023,0 -0.058,-0.005 -0.09,-0.011 L 81.821,57.504 c -0.188,-0.052 -0.307,-0.252 -0.257,-0.444 0.048,-0.192 0.249,-0.305 0.438,-0.253 l 10.701,2.808 c 0.192,0.05 0.308,0.248 0.259,0.439 -0.042,0.165 -0.189,0.272 -0.354,0.272 z"
           id="path1343" />
      </g>
      <g
         id="g1349">
        <path
           d="m 74.116,58.738 c -0.045,0 -0.091,-0.006 -0.136,-0.024 L 70.988,57.499 C 70.8,57.423 70.715,57.213 70.791,57.03 c 0.073,-0.184 0.285,-0.271 0.469,-0.207 l 2.992,1.215 c 0.187,0.082 0.276,0.292 0.197,0.479 -0.056,0.137 -0.192,0.221 -0.333,0.221 z"
           id="path1347" />
      </g>
      <g
         id="g1353">
        <path
           d="m 80.472,61.267 c -0.052,0 -0.097,-0.011 -0.147,-0.031 L 75.656,59.27 c -0.181,-0.073 -0.271,-0.284 -0.189,-0.471 0.074,-0.188 0.286,-0.271 0.469,-0.192 l 4.673,1.957 c 0.186,0.082 0.273,0.297 0.192,0.477 -0.058,0.139 -0.194,0.226 -0.329,0.226 z"
           id="path1351" />
      </g>
      <g
         id="g1357">
        <path
           d="m 86.163,63.225 c -0.047,0 -0.093,-0.006 -0.138,-0.027 l -3.176,-1.312 c -0.187,-0.074 -0.276,-0.285 -0.197,-0.469 0.073,-0.185 0.288,-0.271 0.475,-0.195 l 3.175,1.303 c 0.186,0.075 0.271,0.294 0.198,0.478 -0.058,0.137 -0.189,0.222 -0.337,0.222 z"
           id="path1355" />
      </g>
      <g
         id="g1361">
        <path
           d="m 85.229,67.896 c -0.051,0 -0.113,-0.014 -0.166,-0.045 L 72.829,61.503 c -0.181,-0.098 -0.246,-0.316 -0.152,-0.487 0.09,-0.177 0.311,-0.244 0.485,-0.156 l 12.237,6.347 c 0.175,0.102 0.242,0.313 0.151,0.489 -0.061,0.126 -0.192,0.2 -0.321,0.2 z"
           id="path1359" />
      </g>
      <g
         id="g1365">
        <path
           d="m 89.9,70.04 c -0.057,0 -0.107,-0.011 -0.155,-0.033 l -3.084,-1.494 c -0.179,-0.09 -0.255,-0.303 -0.167,-0.483 0.084,-0.181 0.305,-0.257 0.48,-0.173 l 3.084,1.497 c 0.178,0.094 0.255,0.306 0.169,0.486 -0.06,0.128 -0.192,0.2 -0.327,0.2 z"
           id="path1363" />
      </g>
      <g
         id="g1369">
        <path
           d="m 82.52,70.789 c -0.067,0 -0.136,-0.017 -0.195,-0.057 L 68.314,61.577 c -0.169,-0.113 -0.215,-0.333 -0.104,-0.5 0.11,-0.172 0.33,-0.217 0.5,-0.106 l 14.011,9.148 c 0.169,0.118 0.214,0.34 0.106,0.5 -0.073,0.113 -0.189,0.17 -0.307,0.17 z"
           id="path1367" />
      </g>
      <g
         id="g1373">
        <path
           d="m 86.353,73.588 c -0.068,0 -0.142,-0.016 -0.202,-0.06 l -1.68,-1.12 c -0.163,-0.105 -0.214,-0.336 -0.101,-0.501 0.112,-0.166 0.333,-0.208 0.503,-0.099 l 1.678,1.118 c 0.169,0.113 0.212,0.337 0.102,0.506 -0.075,0.106 -0.181,0.156 -0.3,0.156 z"
           id="path1371" />
      </g>
      <g
         id="g1377">
        <path
           d="m 70.19,67.055 c -0.083,0 -0.165,-0.03 -0.232,-0.085 l -3.644,-3.081 c -0.152,-0.133 -0.173,-0.362 -0.041,-0.515 0.125,-0.149 0.357,-0.166 0.51,-0.04 l 3.639,3.082 c 0.158,0.128 0.172,0.356 0.045,0.508 -0.074,0.089 -0.175,0.131 -0.277,0.131 z"
           id="path1375" />
      </g>
      <g
         id="g1381">
        <path
           d="m 76.077,71.718 c -0.08,0 -0.159,-0.019 -0.224,-0.07 L 72.02,68.56 c -0.152,-0.126 -0.182,-0.35 -0.051,-0.511 0.121,-0.152 0.353,-0.172 0.508,-0.053 l 3.824,3.087 c 0.156,0.118 0.185,0.348 0.057,0.506 -0.073,0.09 -0.174,0.129 -0.281,0.129 z"
           id="path1379" />
      </g>
      <g
         id="g1385">
        <path
           d="m 79.625,74.713 c -0.086,0 -0.178,-0.032 -0.249,-0.102 l -1.413,-1.317 c -0.146,-0.136 -0.151,-0.367 -0.017,-0.508 0.136,-0.149 0.367,-0.155 0.515,-0.018 l 1.411,1.317 c 0.147,0.138 0.153,0.367 0.018,0.511 -0.068,0.077 -0.163,0.117 -0.265,0.117 z"
           id="path1383" />
      </g>
      <g
         id="g1389">
        <path
           d="m 77.385,78.447 c -0.088,0 -0.178,-0.031 -0.252,-0.099 L 64.976,66.568 c -0.147,-0.141 -0.147,-0.369 -0.011,-0.511 0.144,-0.144 0.371,-0.15 0.514,-0.011 l 12.16,11.784 c 0.139,0.133 0.144,0.362 0.008,0.515 -0.074,0.068 -0.17,0.102 -0.262,0.102 z"
           id="path1387" />
      </g>
      <g
         id="g1393">
        <path
           d="m 80.375,82.187 c -0.096,0 -0.186,-0.036 -0.259,-0.107 l -1.495,-1.497 c -0.138,-0.141 -0.138,-0.363 0.003,-0.508 0.141,-0.145 0.373,-0.145 0.509,0 l 1.497,1.497 c 0.145,0.138 0.136,0.364 0,0.508 -0.074,0.07 -0.164,0.107 -0.255,0.107 z"
           id="path1391" />
      </g>
      <g
         id="g1397">
        <path
           d="m 77.466,86.099 c -0.107,0 -0.214,-0.048 -0.282,-0.141 l -5.982,-7.562 c -0.125,-0.157 -0.093,-0.387 0.062,-0.508 0.158,-0.124 0.383,-0.102 0.508,0.06 l 5.977,7.564 c 0.122,0.152 0.097,0.381 -0.059,0.508 -0.066,0.051 -0.147,0.079 -0.224,0.079 z"
           id="path1395" />
      </g>
      <g
         id="g1401">
        <path
           d="m 69.833,76.323 c -0.106,0 -0.208,-0.049 -0.281,-0.145 l -4.983,-6.381 c -0.121,-0.161 -0.096,-0.382 0.062,-0.506 0.158,-0.124 0.385,-0.094 0.509,0.06 l 4.983,6.387 c 0.121,0.158 0.096,0.384 -0.062,0.506 -0.07,0.057 -0.149,0.079 -0.228,0.079 z"
           id="path1399" />
      </g>
      <g
         id="g1405">
        <path
           d="m 67.037,78.998 c -0.118,0 -0.231,-0.054 -0.3,-0.158 l -6.745,-9.888 c -0.113,-0.166 -0.067,-0.397 0.097,-0.505 0.169,-0.11 0.39,-0.067 0.502,0.094 l 6.743,9.892 c 0.113,0.166 0.07,0.39 -0.094,0.509 -0.067,0.038 -0.136,0.056 -0.203,0.056 z"
           id="path1403" />
      </g>
      <g
         id="g1409">
        <path
           d="m 70.834,84.322 c -0.119,0 -0.229,-0.053 -0.296,-0.152 L 67.84,80.351 c -0.113,-0.166 -0.074,-0.39 0.091,-0.509 0.16,-0.109 0.39,-0.073 0.503,0.088 l 2.694,3.825 c 0.115,0.16 0.073,0.39 -0.091,0.499 -0.059,0.046 -0.133,0.068 -0.203,0.068 z"
           id="path1407" />
      </g>
      <g
         id="g1413">
        <path
           d="m 65.805,85.639 c -0.135,0 -0.253,-0.062 -0.321,-0.184 l -4.686,-8.7 c -0.094,-0.181 -0.026,-0.396 0.15,-0.488 0.174,-0.099 0.395,-0.031 0.487,0.141 l 4.681,8.7 c 0.103,0.176 0.034,0.393 -0.138,0.492 -0.06,0.025 -0.116,0.039 -0.173,0.039 z"
           id="path1411" />
      </g>
      <g
         id="g1417">
        <path
           d="m 67.953,90.588 c -0.136,0 -0.264,-0.068 -0.328,-0.197 l -1.028,-2.057 c -0.091,-0.176 -0.015,-0.393 0.164,-0.483 0.178,-0.094 0.4,-0.015 0.485,0.164 l 1.025,2.05 c 0.091,0.182 0.015,0.396 -0.158,0.489 -0.053,0.022 -0.109,0.034 -0.16,0.034 z"
           id="path1415" />
      </g>
      <g
         id="g1421">
        <path
           d="m 61.959,87.214 c -0.147,0 -0.286,-0.089 -0.34,-0.234 L 56.671,73.718 c -0.068,-0.189 0.025,-0.397 0.208,-0.466 0.187,-0.07 0.399,0.031 0.466,0.209 l 4.952,13.262 c 0.068,0.189 -0.024,0.402 -0.208,0.473 -0.045,0.013 -0.085,0.018 -0.13,0.018 z"
           id="path1419" />
      </g>
      <g
         id="g1425">
        <path
           d="m 63.653,91.994 c -0.153,0 -0.294,-0.1 -0.339,-0.252 L 62.376,88.94 c -0.062,-0.186 0.042,-0.393 0.228,-0.457 0.189,-0.062 0.396,0.037 0.461,0.231 l 0.933,2.802 c 0.062,0.189 -0.04,0.39 -0.231,0.454 -0.035,0.016 -0.078,0.024 -0.114,0.024 z"
           id="path1423" />
      </g>
      <g
         id="g1429">
        <path
           d="m 54.592,74.431 c -0.157,0 -0.305,-0.108 -0.345,-0.277 l -0.848,-3.361 c -0.048,-0.189 0.071,-0.387 0.266,-0.435 0.192,-0.052 0.39,0.067 0.435,0.26 l 0.849,3.367 c 0.045,0.192 -0.074,0.387 -0.267,0.438 -0.035,0.004 -0.056,0.008 -0.09,0.008 z"
           id="path1427" />
      </g>
      <g
         id="g1433">
        <path
           d="m 56.823,83.291 c -0.163,0 -0.311,-0.106 -0.351,-0.268 l -1.593,-6.261 c -0.048,-0.188 0.07,-0.387 0.266,-0.439 0.192,-0.049 0.39,0.069 0.44,0.262 l 1.588,6.26 c 0.045,0.192 -0.068,0.387 -0.267,0.435 -0.027,0.008 -0.054,0.011 -0.083,0.011 z"
           id="path1431" />
      </g>
      <g
         id="g1437">
        <path
           d="m 58.501,90.394 c -0.158,0 -0.306,-0.108 -0.351,-0.274 l -1.198,-4.848 c -0.047,-0.192 0.074,-0.387 0.267,-0.438 0.197,-0.047 0.387,0.068 0.435,0.261 l 1.201,4.852 c 0.047,0.192 -0.071,0.385 -0.264,0.438 -0.027,0.006 -0.061,0.009 -0.09,0.009 z"
           id="path1435" />
      </g>
      <g
         id="g1441">
        <path
           d="m 53.471,89.284 c -0.185,0 -0.337,-0.137 -0.358,-0.324 l -0.746,-7.381 c -0.018,-0.2 0.13,-0.375 0.327,-0.4 0.206,-0.025 0.374,0.13 0.393,0.328 l 0.743,7.377 c 0.023,0.2 -0.124,0.377 -0.316,0.4 -0.018,0 -0.031,0 -0.043,0 z"
           id="path1439" />
      </g>
      <g
         id="g1445">
        <path
           d="m 54.11,95.435 c -0.18,0 -0.332,-0.135 -0.355,-0.321 l -0.45,-3.812 c -0.026,-0.2 0.115,-0.384 0.312,-0.405 0.198,-0.021 0.38,0.121 0.403,0.313 l 0.45,3.821 c 0.024,0.2 -0.115,0.377 -0.314,0.403 -0.016,0.001 -0.03,0.001 -0.046,0.001 z"
           id="path1443" />
      </g>
      <g
         id="g1449">
        <path
           d="m 49.614,75.368 c -0.197,0 -0.362,-0.164 -0.362,-0.359 v -4.017 c 0,-0.203 0.165,-0.364 0.362,-0.364 0.197,0 0.362,0.161 0.362,0.364 v 4.017 c 10e-4,0.195 -0.164,0.359 -0.362,0.359 z"
           id="path1447" />
      </g>
      <g
         id="g1453">
        <path
           d="m 49.521,81.062 c -0.194,0 -0.36,-0.16 -0.36,-0.361 v -4.018 c 0,-0.197 0.166,-0.36 0.36,-0.36 0.204,0 0.365,0.163 0.365,0.36 v 4.018 c 0,0.201 -0.161,0.361 -0.365,0.361 z"
           id="path1451" />
      </g>
      <g
         id="g1457">
        <path
           d="m 49.428,92.927 c -0.198,0 -0.358,-0.16 -0.358,-0.362 V 82.472 c 0,-0.194 0.161,-0.358 0.358,-0.358 0.204,0 0.361,0.164 0.361,0.358 v 10.093 c 0,0.202 -0.157,0.362 -0.361,0.362 z"
           id="path1455" />
      </g>
    </g>
  </g>
</svg>
